new.vcd
$date
	Mon Aug 11 10:54:54 2025
$end
$version
	GTKWave Analyzer v3.3.116 (w)1999-2023 BSI
$end
$timescale
	1 s
$end
$scope module pipeline_tb $end
$scope module dut $end
$var wire 2 & ForwardBE[1:0] $end
$scope module Fetch $end
$var wire 1 ' PCSrcE $end
$upscope $end
$var wire 32 $ ResultW[31:0] $end
$scope module Decode1 $end
$scope module rf $end
$var wire 1 " clk $end
$var wire 1 # rst $end
$upscope $end
$upscope $end
$scope module WriteBack $end
$var wire 32 ( ResultW[31:0] $end
$upscope $end
$var wire 32 % InstrD[31:0] $end
$upscope $end
$upscope $end
$enddefinitions $end
#0
$dumpvars
b0 %
0"
b0 &
0'
b0 (
0#
b0 $
$end
#5
1"
#10
0"
1#
#15
b101000000000000010010011 %
1"
#20
0"
#25
1"
b10100000000000100010011 %
#30
0"
#35
1"
b1000001000000110110011 %
#40
0"
#45
1"
b1010 $
b10 &
b1000000001000001000001000110011 %
b1010 (
#50
0"
#55
1"
b101 (
b101 $
b1000001001001010010011 %
b1 &
#60
0"
#65
1"
b0 &
b1111 (
b11100001111001100010011 %
b1111 $
#70
0"
#75
1"
bx $
b100000010110001110010011 %
bx (
#80
0"
#85
1"
b1100 (
b1000001100010000110011 %
b1100 $
#90
0"
#95
1"
b10001 $
b100000000011000010011 %
b10001 (
#100
0"
#105
1"
b1101 (
b1100000011001100011 %
b1101 $
#110
0"
#115
1"
b1111 $
b110010000000000011010010011 %
b1111 (
#120
0"
#125
1"
b1 (
b100000000000000001101111 %
b1 $
#130
0"
#135
1"
b1100100000000000011010010011 %
#140
0"
#145
1"
b1100100 $
b1101111 %
b1100100 (
#150
0"
#155
1"
b1111 (
bx %
b1111 $
#160
0"
#165
1"
b11001000 $
b0x &
x'
b11001000 (
#170
0"
#175
1"
b0 (
b0 $
bx0 &
#180
0"
#185
1"
bx &
bx (
bx $
